[
  {
    "totalElements": 20,
    "totalPages": 4,
    "size": 10,
    "number": 0,
    "content": [
      {
        "registId": 1,
        "memberId": 1,
        "memberName": "알코올러버",
        "placeName": "서울특별시",
        "drinkName": "미나리싱싱주",
        "type": "MAKGEOLLI",
        "degree": 7,
        "sweetness": 3,
        "cost": 5000,
        "description": "프리미엄 막걸리입니다.",
        "imageUrl": "https://thesool.com/common/imageView.do?targetId=PR00000874&targetNm=PRODUCT",
        "createdAt": "2024-08-28T00:00:00Z",
        "approved": null
      },
      {
        "registId": 2,
        "memberId": 2,
        "memberName": "고래밥",
        "placeName": "서울특별시",
        "drinkName": "독산 30",
        "type": "MAKGEOLLI",
        "degree": 7,
        "sweetness": 3,
        "cost": 5000,
        "description": "프리미엄 막걸리입니다.",
        "imageUrl": "https://thesool.com/common/imageView.do?targetId=PR00000957&targetNm=PRODUCT",
        "createdAt": "2024-08-28T00:00:00Z",
        "approved": null
      },
      {
        "registId": 3,
        "memberId": 3,
        "memberName": "술고래",
        "placeName": "서울특별시",
        "drinkName": "참주가 서해밤바다",
        "type": "MAKGEOLLI",
        "degree": 7,
        "sweetness": 3,
        "cost": 5000,
        "description": "프리미엄 막걸리입니다.",
        "imageUrl": "https://thesool.com/common/imageView.do?targetId=PR00000941&targetNm=PRODUCT",
        "createdAt": "2024-08-28T00:00:00Z",
        "approved": null
      },
      {
        "registId": 4,
        "memberId": 4,
        "memberName": "술고래",
        "placeName": "서울특별시",
        "drinkName": "참주가 서해밤바다",
        "type": "MAKGEOLLI",
        "degree": 7,
        "sweetness": 3,
        "cost": 5000,
        "description": "프리미엄 막걸리입니다.",
        "imageUrl": "https://thesool.com/common/imageView.do?targetId=PR00000941&targetNm=PRODUCT",
        "createdAt": "2024-08-28T00:00:00Z",
        "approved": true
      },
      {
        "registId": 5,
        "memberId": 5,
        "memberName": "술고래",
        "placeName": "서울특별시",
        "drinkName": "참주가 서해밤바다",
        "type": "MAKGEOLLI",
        "degree": 7,
        "sweetness": 3,
        "cost": 5000,
        "description": "프리미엄 막걸리입니다.",
        "imageUrl": "https://thesool.com/common/imageView.do?targetId=PR00000941&targetNm=PRODUCT",
        "createdAt": "2024-08-28T00:00:00Z",
        "approved": true
      },
      {
        "registId": 6,
        "memberId": 6,
        "memberName": "술고래",
        "placeName": "서울특별시",
        "drinkName": "참주가 서해밤바다",
        "type": "MAKGEOLLI",
        "degree": 7,
        "sweetness": 3,
        "cost": 5000,
        "description": "프리미엄 막걸리입니다.",
        "imageUrl": "https://thesool.com/common/imageView.do?targetId=PR00000941&targetNm=PRODUCT",
        "createdAt": "2024-08-28T00:00:00Z",
        "approved": true
      },
      {
        "registId": 7,
        "memberId": 7,
        "memberName": "술고래",
        "placeName": "서울특별시",
        "drinkName": "참주가 서해밤바다",
        "type": "MAKGEOLLI",
        "degree": 7,
        "sweetness": 3,
        "cost": 5000,
        "description": "프리미엄 막걸리입니다.",
        "imageUrl": "https://thesool.com/common/imageView.do?targetId=PR00000941&targetNm=PRODUCT",
        "createdAt": "2024-08-28T00:00:00Z",
        "approved": true
      },
      {
        "registId": 8,
        "memberId": 8,
        "memberName": "술고래",
        "placeName": "서울특별시",
        "drinkName": "참주가 서해밤바다",
        "type": "MAKGEOLLI",
        "degree": 7,
        "sweetness": 3,
        "cost": 5000,
        "description": "프리미엄 막걸리입니다.",
        "imageUrl": "https://thesool.com/common/imageView.do?targetId=PR00000941&targetNm=PRODUCT",
        "createdAt": "2024-08-28T00:00:00Z",
        "approved": true
      },
      {
        "registId": 9,
        "memberId": 9,
        "memberName": "술고래",
        "placeName": "서울특별시",
        "drinkName": "참주가 서해밤바다",
        "type": "MAKGEOLLI",
        "degree": 7,
        "sweetness": 3,
        "cost": 5000,
        "description": "프리미엄 막걸리입니다.",
        "imageUrl": "https://thesool.com/common/imageView.do?targetId=PR00000941&targetNm=PRODUCT",
        "createdAt": "2024-08-28T00:00:00Z",
        "approved": true
      },
      {
        "registId": 10,
        "memberId": 10,
        "memberName": "술고래",
        "placeName": "서울특별시",
        "drinkName": "참주가 서해밤바다",
        "type": "MAKGEOLLI",
        "degree": 7,
        "sweetness": 3,
        "cost": 5000,
        "description": "프리미엄 막걸리입니다.",
        "imageUrl": "https://thesool.com/common/imageView.do?targetId=PR00000941&targetNm=PRODUCT",
        "createdAt": "2024-08-28T00:00:00Z",
        "approved": true
      },
      {
        "registId": 11,
        "memberId": 11,
        "memberName": "술고래",
        "placeName": "서울특별시",
        "drinkName": "참주가 서해밤바다",
        "type": "MAKGEOLLI",
        "degree": 7,
        "sweetness": 3,
        "cost": 5000,
        "description": "프리미엄 막걸리입니다.",
        "imageUrl": "https://thesool.com/common/imageView.do?targetId=PR00000941&targetNm=PRODUCT",
        "createdAt": "2024-08-28T00:00:00Z",
        "approved": true
      },
      {
        "registId": 12,
        "memberId": 12,
        "memberName": "술고래",
        "placeName": "서울특별시",
        "drinkName": "참주가 서해밤바다",
        "type": "MAKGEOLLI",
        "degree": 7,
        "sweetness": 3,
        "cost": 5000,
        "description": "프리미엄 막걸리입니다.",
        "imageUrl": "https://thesool.com/common/imageView.do?targetId=PR00000941&targetNm=PRODUCT",
        "createdAt": "2024-08-28T00:00:00Z",
        "approved": true
      }
    ]
  }
]
