[
  {
    "totalElements": 20,
    "totalPages": 4,
    "size": 10,
    "number": 0,
    "content": [
      {
        "id": 1,
        "memberId": 1,
        "memberName": "test1",
        "link": "신고 게시글 링크",
        "type": "비속어 사용",
        "content": "신고내용",
        "approved": null,
        "createdAt": "2024-08-28T00:00:00Z"
      },
      {
        "id": 2,
        "memberId": 2,
        "memberName": "test2",
        "link": "신고 게시글 링크",
        "type": "비속어 사용",
        "content": "신고내용",
        "approved": null,
        "createdAt": "2024-08-28T00:00:00Z"
      },
      {
        "id": 3,
        "memberId": 3,
        "memberName": "test3",
        "link": "신고 게시글 링크",
        "type": "비속어 사용",
        "content": "신고내용",
        "approved": null,
        "createdAt": "2024-08-28T00:00:00Z"
      },
      {
        "id": 4,
        "memberId": 4,
        "memberName": "test4",
        "link": "신고 게시글 링크",
        "type": "비속어 사용",
        "content": "신고내용",
        "approved": true,
        "createdAt": "2024-08-28T00:00:00Z"
      },
      {
        "id": 5,
        "memberId": 5,
        "memberName": "test5",
        "link": "신고 게시글 링크",
        "type": "비속어 사용",
        "content": "신고내용",
        "approved": true,
        "createdAt": "2024-08-28T00:00:00Z"
      },
      {
        "id": 6,
        "memberId": 6,
        "memberName": "test6",
        "link": "신고 게시글 링크",
        "type": "비속어 사용",
        "content": "신고내용",
        "approved": true,
        "createdAt": "2024-08-28T00:00:00Z"
      },
      {
        "id": 7,
        "memberId": 7,
        "memberName": "test7",
        "link": "신고 게시글 링크",
        "type": "비속어 사용",
        "content": "testtesttest",
        "approved": true,
        "createdAt": "2024-08-28T00:00:00Z"
      },
      {
        "id": 8,
        "memberId": 8,
        "memberName": "test8",
        "link": "신고 게시글 링크",
        "type": "허위",
        "content": "신고내용",
        "approved": false,
        "createdAt": "2024-08-28T00:00:00Z"
      },
      {
        "id": 9,
        "memberId": 9,
        "memberName": "test9",
        "link": "신고 게시글 링크",
        "type": "비속어 사용",
        "content": "신고내용",
        "approved": false,
        "createdAt": "2024-08-28T00:00:00Z"
      },
      {
        "id": 10,
        "memberId": 10,
        "memberName": "test10",
        "link": "신고 게시글 링크",
        "type": "비속어 사용",
        "content": "신고내용",
        "approved": false,
        "createdAt": "2024-08-28T00:00:00Z"
      },
      {
        "id": 11,
        "memberId": 11,
        "memberName": "test11",
        "link": "신고 게시글 링크",
        "type": "비속어 사용",
        "content": "신고내용",
        "approved": false,
        "createdAt": "2024-08-28T00:00:00Z"
      }
    ]
  }
]
